#VRML V2.0 utf8

PROTO Header_Info [
field SFString vendor "Parametric Technology Corporation"
field SFString product "Pro/ENGINEER"
field SFString version ""
field SFString sceneFile ""]
{WorldInfo {}}

PROTO Node_Info [
field SFString node_type ""
field SFString node_name ""]
{WorldInfo {}}

PROTO Geom_Type [
field SFString geom_type_s "T_Empty"
field SFInt32 trg_qual 1]
{WorldInfo {}}

PROTO Member_Info [
field SFString member_name ""
field SFInt32 member_id 0
field SFString proe_name ""
field SFString proe_type_s  ""
field SFString expl_status_s "Vrml_Exp_Unknown"
field MFFloat drag_trf [] ]
{WorldInfo {}}

PROTO Model_Info [
field SFInt32 proe_id 0
field SFString proe_type_s "Proe_Assembly"
field SFString proe_name "HAND"
field SFInt32 maj_rev -5
field SFInt32 min_rev  -5
field SFInt32 rev_num 44163
field SFInt32 rev_num_cosm 96
field SFString inst_type_s "Inst_Type_Main"
field SFString generic_name "generic_name"
field SFFloat s_factor 39.3701
]
{WorldInfo {}}

Header_Info{
vendor "Parametric Technology Corporation"
product "Creo Parametric"
version "2"
}

DEF V_Model Anchor {
  url ""
  description "hand.asm"
children [
Node_Info {
node_type "V_Model"
node_name "hand.asm"
}
DEF NO_NAME Viewpoint {
description "NO_NAME"
position 0.296958 -0.0455144 -0.644738
orientation 0.977698 -0.0343526 0.207186 2.93898
fieldOfView 1.56958
}

Model_Info {
proe_id 0
proe_type_s "Proe_Assembly"
proe_name "HAND"
maj_rev -5
min_rev  -5
rev_num 44163
rev_num_cosm 96
inst_type_s "Inst_Type_Main"
generic_name ""
s_factor 39.3701
}

DEF Rep_0 Group {
 children [
Node_Info {
node_type "Rep"
node_name "Rep_0"
}
DEF Member_0_33 Group {
children [
Node_Info {
node_type "Member"
node_name "Member_0_33"
}
Member_Info {
member_name "Member_0_33"
member_id 33
}

Inline {
url "hand_skel_prt.wrl"}

]
}

DEF Member_0_39 Group {
children [
Node_Info {
node_type "Member"
node_name "Member_0_39"
}
Member_Info {
member_name "Member_0_39"
member_id 39
}

Inline {
url "daumen_asm.wrl"}

]
}

DEF Member_0_36 Group {
children [
Node_Info {
node_type "Member"
node_name "Member_0_36"
}
Member_Info {
member_name "Member_0_36"
member_id 36
}

Inline {
url "index_asm.wrl"}

]
}

DEF Member_0_41 Group {
children [
Node_Info {
node_type "Member"
node_name "Member_0_41"
}
Member_Info {
member_name "Member_0_41"
member_id 41
}

Inline {
url "mittelfinger_asm.wrl"}

]
}

DEF Member_0_42 Group {
children [
Node_Info {
node_type "Member"
node_name "Member_0_42"
}
Member_Info {
member_name "Member_0_42"
member_id 42
}

Inline {
url "ringfinger_asm.wrl"}

]
}

DEF Member_0_43 Group {
children [
Node_Info {
node_type "Member"
node_name "Member_0_43"
}
Member_Info {
member_name "Member_0_43"
member_id 43
}

Inline {
url "kleiner_finger_asm.wrl"}

]
}

DEF Member_0_44 Group {
children [
Node_Info {
node_type "Member"
node_name "Member_0_44"
}
Member_Info {
member_name "Member_0_44"
member_id 44
}

Inline {
url "tuat_karlsruhe_mechanismus_asm.wrl"}

]
}

DEF Member_0_45 Group {
children [
Node_Info {
node_type "Member"
node_name "Member_0_45"
}
Member_Info {
member_name "Member_0_45"
member_id 45
}

Inline {
url "mge_asm.wrl"}

]
}

DEF Member_0_66 Group {
children [
Node_Info {
node_type "Member"
node_name "Member_0_66"
}
Member_Info {
member_name "Member_0_66"
member_id 66
}

Transform {
rotation 1.52908e-06 -4.37114e-08 1 -0.0571578
translation -0.103539 -0.0693862 0.00768477
children [
Inline {
url "platine_asm.wrl"}

]
}

]
}

DEF Member_0_17400 Group {
children [
Node_Info {
node_type "Member"
node_name "Member_0_17400"
}
Member_Info {
member_name "Member_0_17400"
member_id 17400
}

Transform {
rotation -0.999184 0.0285633 0.0285633 -1.57161
translation 0.0391801 0.0441462 0.0159648
children [
Inline {
url "display_ssd1351_prt.wrl"}

]
}

]
}

DEF Member_0_22010 Group {
children [
Node_Info {
node_type "Member"
node_name "Member_0_22010"
}
Member_Info {
member_name "Member_0_22010"
member_id 22010
}

Transform {
rotation 0.0845352 -0.381314 -0.920573 -2.73895
translation 0.0262185 0.0340765 -0.0253608
children [
Inline {
url "kamera_ov9650_prt.wrl"}

]
}

]
}

DEF Member_0_55 Group {
children [
Node_Info {
node_type "Member"
node_name "Member_0_55"
}
Member_Info {
member_name "Member_0_55"
member_id 55
}

Inline {
url "gehaeuse_asm.wrl"}

]
}

DEF Member_0_19657 Group {
children [
Node_Info {
node_type "Member"
node_name "Member_0_19657"
}
Member_Info {
member_name "Member_0_19657"
member_id 19657
}

Inline {
url "seile_prt.wrl"}

]
}

]
}

]
}

